^C:\USERS\MPRZE\SOURCE\REPOS\ILLUMINAR\ILLUMINAR\DEPENDENCIES\SHADERC\LIBSHADERC_UTIL\SRC\MESSAGE_TEST.CC
C:\USERS\MPRZE\SOURCE\REPOS\ILLUMINAR\ILLUMINAR\DEPENDENCIES\SHADERC\BUILD\LIBSHADERC_UTIL\SHADERC_UTIL_MESSAGE_TEST.DIR\DEBUG\VC142.PDB
C:\USERS\MPRZE\SOURCE\REPOS\ILLUMINAR\ILLUMINAR\DEPENDENCIES\SHADERC\BUILD\LIBSHADERC_UTIL\SHADERC_UTIL_MESSAGE_TEST.DIR\DEBUG\MESSAGE_TEST.OBJ
