^C:\USERS\MPRZE\SOURCE\REPOS\ILLUMINAR\ILLUMINAR\DEPENDENCIES\SHADERC\BUILD\LIBSHADERC_UTIL\SHADERC_UTIL_MESSAGE_TEST.DIR\DEBUG\MESSAGE_TEST.OBJ
C:\USERS\MPRZE\SOURCE\REPOS\ILLUMINAR\ILLUMINAR\DEPENDENCIES\SHADERC\BUILD\LIBSHADERC_UTIL\DEBUG\SHADERC_UTIL_MESSAGE_TEST.ILK
C:\USERS\MPRZE\SOURCE\REPOS\ILLUMINAR\ILLUMINAR\DEPENDENCIES\SHADERC\BUILD\LIBSHADERC_UTIL\DEBUG\SHADERC_UTIL_MESSAGE_TEST.EXE
C:\USERS\MPRZE\SOURCE\REPOS\ILLUMINAR\ILLUMINAR\DEPENDENCIES\SHADERC\BUILD\LIBSHADERC_UTIL\DEBUG\SHADERC_UTIL_MESSAGE_TEST.PDB
