^C:\USERS\MPRZE\SOURCE\REPOS\ILLUMINAR\ILLUMINAR\DEPENDENCIES\SHADERC\LIBSHADERC_UTIL\CMAKELISTS.TXT
C:\USERS\MPRZE\ONEDRIVE\PULPIT\CMAKE-3.18.3-WIN64-X64\SHARE\CMAKE-3.18\MODULES\CHECKCSOURCECOMPILES.CMAKE
C:\USERS\MPRZE\ONEDRIVE\PULPIT\CMAKE-3.18.3-WIN64-X64\SHARE\CMAKE-3.18\MODULES\CHECKINCLUDEFILE.CMAKE
C:\USERS\MPRZE\ONEDRIVE\PULPIT\CMAKE-3.18.3-WIN64-X64\SHARE\CMAKE-3.18\MODULES\CHECKLIBRARYEXISTS.CMAKE
C:\USERS\MPRZE\ONEDRIVE\PULPIT\CMAKE-3.18.3-WIN64-X64\SHARE\CMAKE-3.18\MODULES\FINDPACKAGEHANDLESTANDARDARGS.CMAKE
C:\USERS\MPRZE\ONEDRIVE\PULPIT\CMAKE-3.18.3-WIN64-X64\SHARE\CMAKE-3.18\MODULES\FINDPACKAGEMESSAGE.CMAKE
C:\USERS\MPRZE\ONEDRIVE\PULPIT\CMAKE-3.18.3-WIN64-X64\SHARE\CMAKE-3.18\MODULES\FINDTHREADS.CMAKE
