^C:\USERS\MPRZE\SOURCE\REPOS\ILLUMINAR\ILLUMINAR\DEPENDENCIES\SHADERC\BUILD\LIBSHADERC_UTIL\SHADERC_UTIL_VERSION_PROFILE_TEST.DIR\DEBUG\VERSION_PROFILE_TEST.OBJ
C:\USERS\MPRZE\SOURCE\REPOS\ILLUMINAR\ILLUMINAR\DEPENDENCIES\SHADERC\BUILD\LIBSHADERC_UTIL\DEBUG\SHADERC_UTIL_VERSION_PROFILE_TEST.ILK
C:\USERS\MPRZE\SOURCE\REPOS\ILLUMINAR\ILLUMINAR\DEPENDENCIES\SHADERC\BUILD\LIBSHADERC_UTIL\DEBUG\SHADERC_UTIL_VERSION_PROFILE_TEST.EXE
C:\USERS\MPRZE\SOURCE\REPOS\ILLUMINAR\ILLUMINAR\DEPENDENCIES\SHADERC\BUILD\LIBSHADERC_UTIL\DEBUG\SHADERC_UTIL_VERSION_PROFILE_TEST.PDB
