^C:\USERS\MPRZE\SOURCE\REPOS\ILLUMINAR\ILLUMINAR\DEPENDENCIES\SHADERC\GLSLC\CMAKELISTS.TXT
setlocal
C:\Users\mprze\OneDrive\Pulpit\cmake-3.18.3-win64-x64\bin\cmake.exe -SC:/Users/mprze/source/repos/Illuminar/Illuminar/dependencies/shaderc -BC:/Users/mprze/source/repos/Illuminar/Illuminar/dependencies/shaderc/build --check-stamp-file C:/Users/mprze/source/repos/Illuminar/Illuminar/dependencies/shaderc/build/glslc/CMakeFiles/generate.stamp
if %errorlevel% neq 0 goto :cmEnd
:cmEnd
endlocal & call :cmErrorLevel %errorlevel% & goto :cmDone
:cmErrorLevel
exit /b %1
:cmDone
if %errorlevel% neq 0 goto :VCEnd
